Plaines - Ouest
30 30
2 2  2 2  2 2  2 2  2 2  2 2  2 2  2 2  2 2  2 2  2 2  2 2  2 2  2 2  2 2  2 2  2 2  2 2  2 2  2 2  2 2  2 2  2 2  2 2  2 2  2 2  2 2  2 2  2 2  2 2  
2 2  2 0  2 0  2 0  2 0  2 5  2 5  2 5  2 0  2 0  2 0  2 0  2 0  2 0  2 0  2 0  2 0  2 0  2 0  2 0  2 0  2 0  2 0  2 0  2 0  2 0  2 0  2 0  2 0  2 2  
2 2  2 0  2 0  2 0  2 0  2 0  2 5  2 5  2 5  2 0  2 0  2 0  2 0  2 0  2 0  2 0  2 0  2 0  2 0  2 0  2 0  2 0  2 0  2 0  2 0  2 0  2 0  2 0  2 0  2 2  
2 2  2 0  2 0  2 66  2 0  2 0  2 0  2 0  2 5  2 0  2 0  2 0  2 0  2 0  2 0  2 0  2 0  2 0  2 0  2 0  2 0  2 0  2 0  2 0  2 0  2 66  2 0  2 0  2 0  2 2  
2 2  2 0  2 0  2 0  2 0  2 0  2 0  2 0  2 5  2 5  2 5  2 6  2 6  2 0  2 0  2 0  2 0  2 0  2 0  2 0  2 0  2 0  2 0  2 0  2 0  2 0  2 0  2 0  2 0  2 2  
2 2  2 0  2 0  2 0  2 0  2 0  2 0  2 0  2 5  2 5  2 5  2 6  2 6  2 0  2 0  2 0  2 0  2 0  2 0  2 0  2 0  2 0  2 0  2 0  2 0  2 0  2 0  2 0  2 0  2 2  
2 2  2 0  2 0  2 0  2 0  2 0  2 0  2 0  2 0  2 5  2 5  2 5  2 0  2 0  2 0  2 0  2 0  2 0  2 0  2 0  2 0  2 0  2 0  2 0  2 0  2 0  2 0  2 0  2 0  2 2  
2 2  2 0  2 0  2 0  2 0  2 0  2 0  2 0  2 0  2 0  2 5  2 5  2 5  2 0  2 0  2 0  2 0  2 0  2 0  2 0  2 0  2 0  2 0  2 0  2 0  2 0  2 0  2 0  2 0  2 2  
2 2  2 0  2 0  2 0  2 0  2 0  2 0  2 0  2 0  2 0  2 0  2 0  2 5  2 0  2 0  2 0  2 0  2 7  2 8  2 0  2 0  2 0  2 0  2 0  2 0  2 0  2 0  2 0  2 0  2 0  
2 2  2 0  2 0  2 0  2 0  2 0  2 0  2 0  2 0  2 0  2 0  2 0  2 5  2 0  2 0  2 0  2 0  2 9  2 10  2 0  2 0  2 0  2 0  2 0  2 0  2 0  2 0  2 0  2 0  2 2  
2 2  2 0  2 0  2 0  2 0  2 0  2 0  2 0  2 0  2 0  2 0  2 0  2 0  2 0  2 0  2 0  2 0  2 0  2 0  2 0  2 0  2 0  2 0  2 0  2 0  2 0  2 0  2 0  2 0  2 2  
2 2  2 0  2 0  2 0  2 0  2 0  2 0  2 0  2 0  2 0  2 0  2 0  2 0  2 0  2 0  2 0  2 0  2 0  2 0  2 0  2 0  2 0  2 0  2 0  2 0  2 0  2 0  2 0  2 0  2 2  
2 2  2 0  2 0  2 0  2 0  2 0  2 0  2 1  2 1  1 0  1 0  1 0  1 0  2 0  2 0  2 0  2 0  2 0  2 0  2 0  2 0  2 0  2 0  2 0  2 0  2 0  2 0  2 0  2 0  2 2  
2 2  2 0  2 0  2 0  2 0  2 0  2 0  2 62  2 1  1 0  1 0  1 0  1 0  1 0  1 0  1 0  1 0  2 0  2 0  2 0  2 0  2 0  2 0  2 0  2 0  2 0  2 0  2 0  2 0  2 2  
2 2  2 0  2 0  2 0  2 0  2 0  2 0  2 0  2 0  1 0  1 0  1 0  1 0  1 0  1 0  1 0  1 0  1 0  1 0  1 0  2 0  2 0  2 0  2 0  2 0  2 0  2 0  2 0  2 0  2 2  
2 2  2 0  2 0  2 0  2 0  2 0  2 0  2 0  2 0  1 0  1 0  1 0  1 0  1 0  1 0  1 0  1 0  1 0  1 0  1 0  1 0  1 0  2 0  2 0  2 0  2 0  2 0  2 0  2 0  2 2  
2 2  2 0  2 0  2 0  2 0  2 0  2 0  2 0  2 0  1 0  1 0  1 0  1 0  1 0  1 0  1 0  1 0  1 0  1 0  1 0  1 0  1 0  1 0  1 0  1 0  2 0  2 0  2 0  2 0  2 2  
2 2  2 0  2 0  2 0  2 0  2 0  2 0  2 0  2 0  2 0  2 0  1 0  1 0  1 0  1 0  1 0  1 0  1 0  1 0  1 0  1 0  1 0  1 0  1 0  1 0  1 0  1 0  1 0  2 0  2 2  
2 2  2 0  2 0  2 0  2 0  2 0  2 0  2 0  2 0  2 0  2 0  1 0  1 0  1 0  1 0  1 0  1 0  1 0  1 0  1 0  1 0  1 0  1 0  1 0  1 0  1 0  1 0  1 0  2 0  2 2  
2 2  2 0  2 0  2 0  2 0  2 0  2 0  2 0  2 0  2 0  2 0  2 0  2 0  2 0  2 0  2 0  2 0  2 0  2 0  2 0  2 0  2 0  2 0  2 0  2 0  2 0  2 0  2 0  2 0  2 2  
2 2  2 0  2 0  2 0  2 0  2 5  2 0  2 0  2 0  2 0  2 0  2 0  2 0  2 0  2 0  2 0  2 0  2 0  2 0  2 0  2 0  2 0  2 0  2 0  2 0  2 0  2 0  2 0  2 0  2 2  
2 2  2 0  2 0  2 0  2 6  2 4  2 0  2 0  2 0  2 0  2 0  2 0  2 0  2 0  2 0  2 0  2 0  2 0  2 0  2 0  2 0  2 0  2 0  2 0  2 0  2 0  2 0  2 0  2 0  2 2  
2 2  2 0  2 0  2 0  2 0  2 4  2 0  2 0  2 0  2 0  2 0  2 0  2 0  2 0  2 0  2 0  2 0  2 0  2 0  2 0  2 0  2 0  2 0  2 0  2 0  2 0  2 0  2 0  2 0  2 2  
2 2  2 0  2 0  2 0  2 0  2 6  2 0  2 0  2 0  2 0  2 0  2 0  2 0  2 0  2 0  2 0  2 0  2 0  2 0  2 0  2 0  2 0  2 0  2 0  2 0  2 0  2 0  2 0  2 0  2 2  
2 2  2 0  2 0  2 0  2 0  2 0  2 0  2 0  2 0  2 0  2 0  2 0  2 0  2 0  2 0  2 0  2 0  2 0  2 0  2 0  2 0  2 0  2 0  2 0  2 0  2 0  2 0  2 0  2 0  2 2  
2 2  2 0  2 0  2 0  2 0  2 0  2 0  2 0  2 0  2 0  2 0  2 0  2 0  2 0  2 0  2 0  2 0  2 0  2 0  2 0  2 0  2 66  2 66  2 0  2 0  2 0  2 0  2 0  2 0  2 2  
2 2  2 0  2 0  2 0  2 0  2 0  2 0  2 0  2 0  2 0  2 0  2 0  2 0  2 0  2 0  2 0  2 0  2 0  2 0  2 0  2 0  2 0  2 0  2 0  2 0  2 0  2 0  2 0  2 0  2 2  
2 2  2 0  2 0  2 0  2 0  2 0  2 0  2 0  2 0  2 0  2 0  2 66  2 0  2 0  2 0  2 0  2 0  2 0  2 0  2 0  2 0  2 0  2 0  2 0  2 0  2 0  2 0  2 0  2 0  2 2  
2 2  2 0  2 0  2 0  2 0  2 0  2 0  2 0  2 0  2 0  2 0  2 0  2 0  2 0  2 0  2 0  2 0  2 0  2 0  2 0  2 0  2 0  2 0  2 0  2 0  2 0  2 0  2 0  2 0  2 2  
2 2  2 2  2 2  2 2  2 2  2 2  2 2  2 2  2 2  2 2  2 2  2 2  2 2  2 2  2 2  2 2  2 2  2 2  2 2  2 2  2 2  2 2  2 2  2 2  2 2  2 2  2 2  2 2  2 2  2 2  

0

5
3 3 0 45 1
1
Cobracier
120 6 130 130 40

25 3 0 60 1
10
Lourd'eau
300 5 100 300 0

11 27 1 120 1
4
Dragrognard
2000 10 150 400 2000

21 25 1 10 1
13
Vaut-rien
60 3 80 90 10

22 25 1 10 1
13
Vaut-rien
60 3 80 90 10


0

