Village
30 20
2 32  2 27  2 0  2 0  3 0  3 12  2 29  2 20  2 20  2 20  2 20  1 51  11 0  1 53  2 20  2 20  2 20  2 28  2 11  2 0  3 0  4 0  4 0  2 11  2 0  2 0  2 2  2 2  2 3  2 3  
2 33  2 26  2 0  2 0  3 0  3 12  2 25  2 19  2 19  2 19  2 19  2 19  10 0  2 19  2 19  2 19  2 19  2 16  2 28  2 0  3 11  4 0  3 0  2 0  2 0  2 0  3 0  2 2  2 2  2 2  
2 20  2 20  2 20  2 20  2 20  2 20  2 18  3 0  3 0  3 0  1 0  1 0  1 0  1 0  1 0  4 0  4 33  2 15  2 16  2 20  2 20  2 20  2 20  2 20  2 28  2 0  2 13  3 11  3 13  3 0  
2 19  2 19  2 19  2 19  2 19  2 19  2 17  2 60  2 61  2 1  1 0  1 0  1 0  1 0  1 0  4 0  4 0  4 33  2 15  2 19  2 19  2 19  2 19  2 19  2 16  2 20  2 20  2 20  2 20  2 20  
2 2  2 3  2 56  2 0  2 0  2 0  2 0  2 0  9 0  9 82  2 0  1 0  1 0  1 0  1 0  1 0  4 13  2 0  2 0  2 0  2 0  2 0  2 0  2 33  2 15  2 19  2 19  2 19  2 19  2 19  
2 4  2 3  2 56  2 0  2 0  2 11  2 0  2 0  2 0  9 0  2 0  1 0  1 0  1 0  4 0  4 0  2 0  2 0  2 0  2 0  2 0  2 0  2 0  2 0  2 0  2 0  2 0  2 57  2 2  2 3  
2 4  2 2  2 56  2 0  2 0  2 0  2 0  2 0  2 0  9 0  2 0  2 0  2 0  2 0  2 0  2 0  2 0  2 0  2 0  2 0  2 0  2 0  2 11  2 0  2 0  2 0  2 0  2 57  2 2  2 3  
2 2  2 2  2 56  2 0  2 11  2 0  2 0  2 0  2 0  9 0  2 12  2 0  2 0  2 0  2 0  2 0  2 0  2 0  2 0  2 0  2 0  2 0  2 0  2 0  2 0  2 0  2 0  2 57  2 2  2 2  
9 0  9 0  9 0  9 0  9 0  9 79  9 0  9 0  9 0  9 77  2 0  2 0  2 0  2 0  2 1  2 1  2 1  2 1  2 0  2 0  2 0  2 0  2 0  2 0  2 0  2 0  2 0  2 57  2 4  2 2  
2 4  2 3  2 56  2 60  2 0  2 72  2 1  2 1  2 1  9 78  2 75  2 0  2 0  2 0  7 1  7 1  7 1  7 1  2 0  2 0  2 0  2 1  2 1  2 1  2 1  2 1  2 1  2 57  2 5  2 2  
2 3  2 4  2 56  2 0  2 0  2 0  2 64  2 1  2 1  9 76  2 0  2 0  2 0  2 0  7 65  7 1  7 1  7 1  2 0  2 0  2 0  2 62  2 1  2 63  2 1  2 62  2 1  2 57  2 5  2 5  
2 4  2 2  3 56  3 0  2 0  2 81  9 0  9 0  9 73  9 74  2 7  2 8  2 0  2 0  7 0  7 0  7 0  7 0  2 0  2 0  2 0  9 0  9 0  9 0  9 0  9 0  9 0  2 57  2 5  2 5  
2 4  2 2  3 56  3 13  2 0  2 0  2 0  2 11  2 0  9 0  2 9  2 10  2 0  2 0  7 0  7 0  7 0  7 0  2 0  2 13  2 0  2 0  2 0  2 0  2 0  2 13  9 0  2 57  2 3  2 4  
2 3  2 2  3 56  3 13  3 0  2 0  2 0  2 0  2 0  9 0  9 0  9 0  9 0  9 0  9 0  9 0  9 0  9 0  9 0  9 0  9 0  9 0  9 0  9 0  9 0  9 0  9 0  9 0  9 0  9 0  
2 2  2 2  3 56  3 0  3 0  3 0  2 0  2 0  2 0  2 0  2 0  2 0  2 0  2 0  2 0  2 12  2 0  2 0  2 0  2 0  2 1  2 1  9 0  3 0  3 13  3 11  3 12  3 57  2 4  2 4  
2 2  2 4  3 56  3 0  3 12  3 0  3 0  3 0  2 0  2 0  2 0  2 0  2 0  2 12  2 0  2 0  2 0  2 0  2 0  2 0  2 63  2 1  9 0  3 0  3 13  3 11  3 12  3 57  2 4  2 3  
2 3  2 4  3 56  3 0  3 0  3 11  3 0  3 0  3 0  3 0  2 0  2 0  2 0  2 0  2 0  2 0  2 0  2 0  2 0  2 0  2 0  9 0  9 0  3 0  3 13  3 11  3 12  3 57  2 4  2 3  
2 4  2 5  2 58  2 55  2 55  2 55  2 55  2 55  2 55  2 55  2 55  2 55  2 55  2 55  2 55  2 55  2 55  2 55  2 55  2 55  2 55  2 55  2 55  2 55  2 55  2 55  2 55  2 59  2 4  2 3  
2 4  2 5  2 5  2 2  2 2  2 5  2 5  2 3  2 3  2 3  2 3  2 5  2 5  2 5  2 4  2 4  2 5  2 5  2 5  2 5  2 5  2 2  2 2  2 2  2 2  2 5  2 5  2 5  2 5  2 4  
2 3  2 5  2 5  2 5  2 2  2 2  2 2  2 2  2 2  2 2  2 2  2 2  2 2  2 2  2 2  2 2  2 2  2 2  2 2  2 2  2 3  2 3  2 3  2 4  2 4  2 5  2 5  2 5  2 5  2 4  

10
22
Cadavre du Conseiller
9 4
1 1
2
Le corps sans vie du Conseiller vous rappelle
à votre devoir.

19
Garde
5 8
0 0
21
Vieil Homme
5 11
0 0
17
Aubergiste
9 8
0 0
15
Villageois
10 9
0 0
14
Lucie
9 11
0 0
12
Villageois Costaud
5 9
0 0
13
Serveuse
8 11
0 0
16
Petite Fille
9 10
0 0
18
Jeune Garçon
9 9
0 0

0

2
7 3 0
3 9 0

