Casse-os;5;90;1;1;5;50
;Cobracier;5;120;0
;Collepartout;2;80;1;0;2;50
;Dracos;100;100;1;1;25;50
;Dragrognard;100;80;0
;Dralamandre;100;100;0
;Dravageur;100;100;0
;Épouvenpaille;5;90;0
;Feuval;7;130;0
;Feuvalier;7;100;0
;Lourd'eau;10;70;0
;Saule tueur;7;70;0
;Tados;2;100;1;1;2;50
;Vaut-rien;3;100;0
;Ver Déter;7;120;0
